00000000 .text
00000a26 .rodata
00000a88 .bss
00000000 .comment
00000000 .debug_aranges
00000000 .debug_pubnames
00000000 .debug_info
00000000 .debug_abbrev
00000000 .debug_line
00000000 .debug_frame
00000000 .debug_str
00000000 .debug_loc
00000000 .debug_pubtypes
00000000 .debug_ranges
00000000 ls.c
00000a88 buf.917
00000000 ulib.c
00000000 printf.c
00000630 printint
00000a77 digits.910
00000000 umalloc.c
00000aa0 freep
00000a98 base
00000360 strcpy
00000000 fmtname
000006c0 printf
000004a0 memmove
000005d0 mknod
00000520 gets
00000608 getpid
00000940 malloc
00000618 sleep
00000598 pipe
000005a8 write
000005e0 fstat
000005b8 kill
000005f8 chdir
000005c0 exec
00000590 wait
000005a0 read
000005d8 unlink
00000580 fork
00000610 sbrk
00000620 uptime
00000a88 __bss_start
00000400 memset
00000310 main
00000390 strcmp
00000600 dup
000004d0 stat
00000a88 _edata
00000aa4 _end
000005e8 link
000000a0 ls
00000588 exit
00000460 atoi
000003e0 strlen
000005c8 open
00000420 strchr
000005f0 mkdir
000005b0 close
000008b0 free
