00000000 .text
00000746 .rodata
00000794 .bss
00000000 .comment
00000000 .debug_aranges
00000000 .debug_pubnames
00000000 .debug_info
00000000 .debug_abbrev
00000000 .debug_line
00000000 .debug_frame
00000000 .debug_str
00000000 .debug_loc
00000000 .debug_pubtypes
00000000 .debug_ranges
00000000 mkdir.c
00000000 ulib.c
00000000 printf.c
00000350 printint
00000780 digits.910
00000000 umalloc.c
0000079c freep
00000794 base
00000080 strcpy
000003e0 printf
000001c0 memmove
000002f0 mknod
00000240 gets
00000328 getpid
00000660 malloc
00000338 sleep
000002b8 pipe
000002c8 write
00000300 fstat
000002d8 kill
00000318 chdir
000002e0 exec
000002b0 wait
000002c0 read
000002f8 unlink
000002a0 fork
00000330 sbrk
00000340 uptime
00000791 __bss_start
00000120 memset
00000000 main
000000b0 strcmp
00000320 dup
000001f0 stat
00000791 _edata
000007a0 _end
00000308 link
000002a8 exit
00000180 atoi
00000100 strlen
000002e8 open
00000140 strchr
00000310 mkdir
000002d0 close
000005d0 free
